EESchema Schematic File Version 2
LIBS:power
LIBS:device
LIBS:switches
LIBS:relays
LIBS:motors
LIBS:transistors
LIBS:conn
LIBS:linear
LIBS:regul
LIBS:74xx
LIBS:cmos4000
LIBS:adc-dac
LIBS:memory
LIBS:xilinx
LIBS:microcontrollers
LIBS:dsp
LIBS:microchip
LIBS:analog_switches
LIBS:motorola
LIBS:texas
LIBS:intel
LIBS:audio
LIBS:interface
LIBS:digital-audio
LIBS:philips
LIBS:display
LIBS:cypress
LIBS:siliconi
LIBS:opto
LIBS:atmel
LIBS:contrib
LIBS:valves
LIBS:ESP8266
LIBS:remoteCtrl
LIBS:remoteCtrl-cache
EELAYER 25 0
EELAYER END
$Descr A4 11693 8268
encoding utf-8
Sheet 1 1
Title ""
Date ""
Rev ""
Comp ""
Comment1 ""
Comment2 ""
Comment3 ""
Comment4 ""
$EndDescr
$Comp
L Conn_01x07_Male J1
U 1 1 5B3296AF
P 1200 700
F 0 "J1" H 1200 1100 50  0000 C CNN
F 1 "Conn_01x07_Male" H 1200 300 50  0000 C CNN
F 2 "Pin_Headers:Pin_Header_Straight_1x07_Pitch2.54mm" H 1200 700 50  0001 C CNN
F 3 "" H 1200 700 50  0001 C CNN
	1    1200 700 
	0    1    1    0   
$EndComp
$Comp
L Conn_01x02 J3
U 1 1 5B329A9E
P 10200 850
F 0 "J3" H 10200 950 50  0000 C CNN
F 1 "Conn_01x02" H 10200 650 50  0000 C CNN
F 2 "Connectors:PINHEAD1-2" H 10200 850 50  0001 C CNN
F 3 "" H 10200 850 50  0001 C CNN
	1    10200 850 
	0    -1   -1   0   
$EndComp
$Comp
L GND #PWR01
U 1 1 5B329CD7
P 10200 1050
F 0 "#PWR01" H 10200 800 50  0001 C CNN
F 1 "GND" H 10200 900 50  0000 C CNN
F 2 "" H 10200 1050 50  0001 C CNN
F 3 "" H 10200 1050 50  0001 C CNN
	1    10200 1050
	1    0    0    -1  
$EndComp
$Comp
L +5V #PWR02
U 1 1 5B329D41
P 10300 1200
F 0 "#PWR02" H 10300 1050 50  0001 C CNN
F 1 "+5V" H 10300 1340 50  0000 C CNN
F 2 "" H 10300 1200 50  0001 C CNN
F 3 "" H 10300 1200 50  0001 C CNN
	1    10300 1200
	-1   0    0    1   
$EndComp
Text GLabel 1000 1200 3    60   Output ~ 0
D4
Text GLabel 1100 1200 3    60   Output ~ 0
D3
Text GLabel 1200 1200 3    60   Output ~ 0
D2
Text GLabel 1300 1200 3    60   Output ~ 0
D1
$Comp
L VDD #PWR03
U 1 1 5B38D01B
P 1400 1000
F 0 "#PWR03" H 1400 850 50  0001 C CNN
F 1 "VDD" H 1400 1150 50  0000 C CNN
F 2 "" H 1400 1000 50  0001 C CNN
F 3 "" H 1400 1000 50  0001 C CNN
	1    1400 1000
	-1   0    0    1   
$EndComp
$Comp
L GND #PWR04
U 1 1 5B38D05F
P 1500 1200
F 0 "#PWR04" H 1500 950 50  0001 C CNN
F 1 "GND" H 1500 1050 50  0000 C CNN
F 2 "" H 1500 1200 50  0001 C CNN
F 3 "" H 1500 1200 50  0001 C CNN
	1    1500 1200
	1    0    0    -1  
$EndComp
$Comp
L VDD #PWR05
U 1 1 5B38D17C
P 3500 900
F 0 "#PWR05" H 3500 750 50  0001 C CNN
F 1 "VDD" H 3500 1050 50  0000 C CNN
F 2 "" H 3500 900 50  0001 C CNN
F 3 "" H 3500 900 50  0001 C CNN
	1    3500 900 
	-1   0    0    1   
$EndComp
$Comp
L GND #PWR06
U 1 1 5B38D190
P 3050 1000
F 0 "#PWR06" H 3050 750 50  0001 C CNN
F 1 "GND" H 3050 850 50  0000 C CNN
F 2 "" H 3050 1000 50  0001 C CNN
F 3 "" H 3050 1000 50  0001 C CNN
	1    3050 1000
	1    0    0    -1  
$EndComp
$Comp
L +5V #PWR07
U 1 1 5B38D1C9
P 2600 800
F 0 "#PWR07" H 2600 650 50  0001 C CNN
F 1 "+5V" H 2600 940 50  0000 C CNN
F 2 "" H 2600 800 50  0001 C CNN
F 3 "" H 2600 800 50  0001 C CNN
	1    2600 800 
	1    0    0    -1  
$EndComp
$Comp
L C C1
U 1 1 5B38D1F6
P 2800 900
F 0 "C1" H 2825 1000 50  0000 L CNN
F 1 "100n" H 2825 800 50  0000 L CNN
F 2 "Resistors_THT:R_Axial_DIN0204_L3.6mm_D1.6mm_P2.54mm_Vertical" H 2838 750 50  0001 C CNN
F 3 "" H 2800 900 50  0001 C CNN
	1    2800 900 
	0    1    1    0   
$EndComp
$Comp
L +3.3V #PWR08
U 1 1 5B38D387
P 3500 800
F 0 "#PWR08" H 3500 650 50  0001 C CNN
F 1 "+3.3V" H 3500 940 50  0000 C CNN
F 2 "" H 3500 800 50  0001 C CNN
F 3 "" H 3500 800 50  0001 C CNN
	1    3500 800 
	1    0    0    -1  
$EndComp
$Comp
L C C2
U 1 1 5B38D3BB
P 3250 900
F 0 "C2" H 3275 1000 50  0000 L CNN
F 1 "100n" H 3275 800 50  0000 L CNN
F 2 "Resistors_THT:R_Axial_DIN0204_L3.6mm_D1.6mm_P2.54mm_Vertical" H 3288 750 50  0001 C CNN
F 3 "" H 3250 900 50  0001 C CNN
	1    3250 900 
	0    1    1    0   
$EndComp
$Comp
L ESP-12E U1
U 1 1 5B38D4AE
P 5650 2850
F 0 "U1" H 5650 2750 50  0000 C CNN
F 1 "ESP-12E" H 5650 2950 50  0000 C CNN
F 2 "remoteCtrl:DIP-16_W10.16mm" H 5650 2850 50  0001 C CNN
F 3 "" H 5650 2850 50  0001 C CNN
	1    5650 2850
	1    0    0    -1  
$EndComp
$Comp
L GND #PWR09
U 1 1 5B38D739
P 6550 3400
F 0 "#PWR09" H 6550 3150 50  0001 C CNN
F 1 "GND" H 6550 3250 50  0000 C CNN
F 2 "" H 6550 3400 50  0001 C CNN
F 3 "" H 6550 3400 50  0001 C CNN
	1    6550 3400
	1    0    0    -1  
$EndComp
$Comp
L +3.3V #PWR010
U 1 1 5B38D778
P 4750 3400
F 0 "#PWR010" H 4750 3250 50  0001 C CNN
F 1 "+3.3V" H 4750 3540 50  0000 C CNN
F 2 "" H 4750 3400 50  0001 C CNN
F 3 "" H 4750 3400 50  0001 C CNN
	1    4750 3400
	-1   0    0    1   
$EndComp
Text GLabel 6750 2550 2    60   Input ~ 0
TX
Text GLabel 6750 2650 2    60   Input ~ 0
RX
$Comp
L +3.3V #PWR011
U 1 1 5B38D8B5
P 4550 2750
F 0 "#PWR011" H 4550 2600 50  0001 C CNN
F 1 "+3.3V" H 4550 2890 50  0000 C CNN
F 2 "" H 4550 2750 50  0001 C CNN
F 3 "" H 4550 2750 50  0001 C CNN
	1    4550 2750
	0    -1   -1   0   
$EndComp
Text GLabel 6750 2750 2    60   Input ~ 0
D1
Text GLabel 6750 2850 2    60   Input ~ 0
D2
Text GLabel 6750 2950 2    60   Input ~ 0
D3
Text GLabel 6750 3050 2    60   Input ~ 0
D4
Text GLabel 6750 3150 2    60   Output ~ 0
O4
Text GLabel 4550 2950 0    60   Output ~ 0
O1
Text GLabel 4550 3050 0    60   Output ~ 0
O2
Text GLabel 4550 3150 0    60   Output ~ 0
O3
$Comp
L BSS138 Q1
U 1 1 5B422E75
P 1900 5000
F 0 "Q1" H 2100 5075 50  0000 L CNN
F 1 "BSS138" H 2100 5000 50  0000 L CNN
F 2 "TO_SOT_Packages_SMD:SOT-23" H 2100 4925 50  0001 L CIN
F 3 "" H 1900 5000 50  0001 L CNN
	1    1900 5000
	0    -1   -1   0   
$EndComp
$Comp
L R R3
U 1 1 5B424979
P 1900 5350
F 0 "R3" V 1980 5350 50  0000 C CNN
F 1 "100R" V 1900 5350 50  0000 C CNN
F 2 "Resistors_THT:R_Axial_DIN0204_L3.6mm_D1.6mm_P2.54mm_Vertical" V 1830 5350 50  0001 C CNN
F 3 "" H 1900 5350 50  0001 C CNN
	1    1900 5350
	1    0    0    -1  
$EndComp
$Comp
L R R1
U 1 1 5B424F6F
P 1050 4900
F 0 "R1" V 1130 4900 50  0000 C CNN
F 1 "R" V 1050 4900 50  0000 C CNN
F 2 "Resistors_THT:R_Axial_DIN0204_L3.6mm_D1.6mm_P2.54mm_Vertical" V 980 4900 50  0001 C CNN
F 3 "" H 1050 4900 50  0001 C CNN
	1    1050 4900
	0    1    1    0   
$EndComp
$Comp
L LED D1
U 1 1 5B424FE8
P 1450 4900
F 0 "D1" H 1450 5000 50  0000 C CNN
F 1 "LED" H 1450 4800 50  0000 C CNN
F 2 "Connectors:PINHEAD1-2" H 1450 4900 50  0001 C CNN
F 3 "" H 1450 4900 50  0001 C CNN
	1    1450 4900
	-1   0    0    1   
$EndComp
$Comp
L +5V #PWR012
U 1 1 5B42534D
P 900 4750
F 0 "#PWR012" H 900 4600 50  0001 C CNN
F 1 "+5V" H 900 4890 50  0000 C CNN
F 2 "" H 900 4750 50  0001 C CNN
F 3 "" H 900 4750 50  0001 C CNN
	1    900  4750
	1    0    0    -1  
$EndComp
$Comp
L GND #PWR013
U 1 1 5B4253A7
P 2300 4900
F 0 "#PWR013" H 2300 4650 50  0001 C CNN
F 1 "GND" H 2300 4750 50  0000 C CNN
F 2 "" H 2300 4900 50  0001 C CNN
F 3 "" H 2300 4900 50  0001 C CNN
	1    2300 4900
	1    0    0    -1  
$EndComp
Text GLabel 1650 5500 0    60   Input ~ 0
O1
$Comp
L BSS138 Q2
U 1 1 5B425742
P 3700 5000
F 0 "Q2" H 3900 5075 50  0000 L CNN
F 1 "BSS138" H 3900 5000 50  0000 L CNN
F 2 "TO_SOT_Packages_SMD:SOT-23" H 3900 4925 50  0001 L CIN
F 3 "" H 3700 5000 50  0001 L CNN
	1    3700 5000
	0    -1   -1   0   
$EndComp
$Comp
L R R7
U 1 1 5B425748
P 3700 5350
F 0 "R7" V 3780 5350 50  0000 C CNN
F 1 "100R" V 3700 5350 50  0000 C CNN
F 2 "Resistors_THT:R_Axial_DIN0204_L3.6mm_D1.6mm_P2.54mm_Vertical" V 3630 5350 50  0001 C CNN
F 3 "" H 3700 5350 50  0001 C CNN
	1    3700 5350
	1    0    0    -1  
$EndComp
$Comp
L R R5
U 1 1 5B42574E
P 2850 4900
F 0 "R5" V 2930 4900 50  0000 C CNN
F 1 "R" V 2850 4900 50  0000 C CNN
F 2 "Resistors_THT:R_Axial_DIN0204_L3.6mm_D1.6mm_P2.54mm_Vertical" V 2780 4900 50  0001 C CNN
F 3 "" H 2850 4900 50  0001 C CNN
	1    2850 4900
	0    1    1    0   
$EndComp
$Comp
L LED D2
U 1 1 5B425754
P 3250 4900
F 0 "D2" H 3250 5000 50  0000 C CNN
F 1 "LED" H 3250 4800 50  0000 C CNN
F 2 "Connectors:PINHEAD1-2" H 3250 4900 50  0001 C CNN
F 3 "" H 3250 4900 50  0001 C CNN
	1    3250 4900
	-1   0    0    1   
$EndComp
$Comp
L +5V #PWR014
U 1 1 5B42575C
P 2700 4750
F 0 "#PWR014" H 2700 4600 50  0001 C CNN
F 1 "+5V" H 2700 4890 50  0000 C CNN
F 2 "" H 2700 4750 50  0001 C CNN
F 3 "" H 2700 4750 50  0001 C CNN
	1    2700 4750
	1    0    0    -1  
$EndComp
$Comp
L GND #PWR015
U 1 1 5B425763
P 4100 4900
F 0 "#PWR015" H 4100 4650 50  0001 C CNN
F 1 "GND" H 4100 4750 50  0000 C CNN
F 2 "" H 4100 4900 50  0001 C CNN
F 3 "" H 4100 4900 50  0001 C CNN
	1    4100 4900
	1    0    0    -1  
$EndComp
Text GLabel 3450 5500 0    60   Input ~ 0
O2
$Comp
L BSS138 Q3
U 1 1 5B425BD8
P 1900 6400
F 0 "Q3" H 2100 6475 50  0000 L CNN
F 1 "BSS138" H 2100 6400 50  0000 L CNN
F 2 "TO_SOT_Packages_SMD:SOT-23" H 2100 6325 50  0001 L CIN
F 3 "" H 1900 6400 50  0001 L CNN
	1    1900 6400
	0    -1   -1   0   
$EndComp
$Comp
L R R4
U 1 1 5B425BDE
P 1900 6750
F 0 "R4" V 1980 6750 50  0000 C CNN
F 1 "100R" V 1900 6750 50  0000 C CNN
F 2 "Resistors_THT:R_Axial_DIN0204_L3.6mm_D1.6mm_P2.54mm_Vertical" V 1830 6750 50  0001 C CNN
F 3 "" H 1900 6750 50  0001 C CNN
	1    1900 6750
	1    0    0    -1  
$EndComp
$Comp
L R R2
U 1 1 5B425BE4
P 1050 6300
F 0 "R2" V 1130 6300 50  0000 C CNN
F 1 "R" V 1050 6300 50  0000 C CNN
F 2 "Resistors_THT:R_Axial_DIN0204_L3.6mm_D1.6mm_P2.54mm_Vertical" V 980 6300 50  0001 C CNN
F 3 "" H 1050 6300 50  0001 C CNN
	1    1050 6300
	0    1    1    0   
$EndComp
$Comp
L LED D3
U 1 1 5B425BEA
P 1450 6300
F 0 "D3" H 1450 6400 50  0000 C CNN
F 1 "LED" H 1450 6200 50  0000 C CNN
F 2 "Connectors:PINHEAD1-2" H 1450 6300 50  0001 C CNN
F 3 "" H 1450 6300 50  0001 C CNN
	1    1450 6300
	-1   0    0    1   
$EndComp
$Comp
L +5V #PWR016
U 1 1 5B425BF2
P 900 6150
F 0 "#PWR016" H 900 6000 50  0001 C CNN
F 1 "+5V" H 900 6290 50  0000 C CNN
F 2 "" H 900 6150 50  0001 C CNN
F 3 "" H 900 6150 50  0001 C CNN
	1    900  6150
	1    0    0    -1  
$EndComp
$Comp
L GND #PWR017
U 1 1 5B425BF9
P 2300 6300
F 0 "#PWR017" H 2300 6050 50  0001 C CNN
F 1 "GND" H 2300 6150 50  0000 C CNN
F 2 "" H 2300 6300 50  0001 C CNN
F 3 "" H 2300 6300 50  0001 C CNN
	1    2300 6300
	1    0    0    -1  
$EndComp
Text GLabel 1650 6900 0    60   Input ~ 0
O3
$Comp
L BSS138 Q4
U 1 1 5B425F84
P 3700 6400
F 0 "Q4" H 3900 6475 50  0000 L CNN
F 1 "BSS138" H 3900 6400 50  0000 L CNN
F 2 "TO_SOT_Packages_SMD:SOT-23" H 3900 6325 50  0001 L CIN
F 3 "" H 3700 6400 50  0001 L CNN
	1    3700 6400
	0    -1   -1   0   
$EndComp
$Comp
L R R8
U 1 1 5B425F8A
P 3700 6750
F 0 "R8" V 3780 6750 50  0000 C CNN
F 1 "100R" V 3700 6750 50  0000 C CNN
F 2 "Resistors_THT:R_Axial_DIN0204_L3.6mm_D1.6mm_P2.54mm_Vertical" V 3630 6750 50  0001 C CNN
F 3 "" H 3700 6750 50  0001 C CNN
	1    3700 6750
	1    0    0    -1  
$EndComp
$Comp
L R R6
U 1 1 5B425F90
P 2850 6300
F 0 "R6" V 2930 6300 50  0000 C CNN
F 1 "R" V 2850 6300 50  0000 C CNN
F 2 "Resistors_THT:R_Axial_DIN0204_L3.6mm_D1.6mm_P2.54mm_Vertical" V 2780 6300 50  0001 C CNN
F 3 "" H 2850 6300 50  0001 C CNN
	1    2850 6300
	0    1    1    0   
$EndComp
$Comp
L LED D4
U 1 1 5B425F96
P 3250 6300
F 0 "D4" H 3250 6400 50  0000 C CNN
F 1 "LED" H 3250 6200 50  0000 C CNN
F 2 "Connectors:PINHEAD1-2" H 3250 6300 50  0001 C CNN
F 3 "" H 3250 6300 50  0001 C CNN
	1    3250 6300
	-1   0    0    1   
$EndComp
$Comp
L +5V #PWR018
U 1 1 5B425F9E
P 2700 6150
F 0 "#PWR018" H 2700 6000 50  0001 C CNN
F 1 "+5V" H 2700 6290 50  0000 C CNN
F 2 "" H 2700 6150 50  0001 C CNN
F 3 "" H 2700 6150 50  0001 C CNN
	1    2700 6150
	1    0    0    -1  
$EndComp
$Comp
L GND #PWR019
U 1 1 5B425FA5
P 4100 6300
F 0 "#PWR019" H 4100 6050 50  0001 C CNN
F 1 "GND" H 4100 6150 50  0000 C CNN
F 2 "" H 4100 6300 50  0001 C CNN
F 3 "" H 4100 6300 50  0001 C CNN
	1    4100 6300
	1    0    0    -1  
$EndComp
Text GLabel 3450 6900 0    60   Input ~ 0
O4
$Comp
L Conn_01x03 J2
U 1 1 5B427636
P 9400 850
F 0 "J2" H 9400 1050 50  0000 C CNN
F 1 "Conn_01x03" H 9400 650 50  0000 C CNN
F 2 "Connectors:Fan_Pin_Header_Straight_1x03" H 9400 850 50  0001 C CNN
F 3 "" H 9400 850 50  0001 C CNN
	1    9400 850 
	0    -1   -1   0   
$EndComp
$Comp
L GND #PWR020
U 1 1 5B427701
P 9500 1050
F 0 "#PWR020" H 9500 800 50  0001 C CNN
F 1 "GND" H 9500 900 50  0000 C CNN
F 2 "" H 9500 1050 50  0001 C CNN
F 3 "" H 9500 1050 50  0001 C CNN
	1    9500 1050
	1    0    0    -1  
$EndComp
Text GLabel 9300 1250 3    60   Output ~ 0
TX
Text GLabel 9400 1250 3    60   Output ~ 0
RX
$Comp
L R R9
U 1 1 5B4295D7
P 4750 2350
F 0 "R9" V 4830 2350 50  0000 C CNN
F 1 "10k" V 4750 2350 50  0000 C CNN
F 2 "Resistors_THT:R_Axial_DIN0204_L3.6mm_D1.6mm_P2.54mm_Vertical" V 4680 2350 50  0001 C CNN
F 3 "" H 4750 2350 50  0001 C CNN
	1    4750 2350
	1    0    0    -1  
$EndComp
$Comp
L VDD #PWR021
U 1 1 5B429586
P 4750 2200
F 0 "#PWR021" H 4750 2050 50  0001 C CNN
F 1 "VDD" H 4750 2350 50  0000 C CNN
F 2 "" H 4750 2200 50  0001 C CNN
F 3 "" H 4750 2200 50  0001 C CNN
	1    4750 2200
	1    0    0    -1  
$EndComp
Wire Wire Line
	1000 900  1000 1200
Wire Wire Line
	1100 1200 1100 900 
Wire Wire Line
	1200 1200 1200 900 
Wire Wire Line
	1300 1200 1300 900 
Wire Wire Line
	1400 1000 1400 900 
Wire Wire Line
	1500 1200 1500 900 
Wire Wire Line
	3050 900  3050 1000
Wire Wire Line
	2950 900  3100 900 
Wire Wire Line
	2650 900  2600 900 
Connection ~ 3050 900 
Wire Wire Line
	3400 900  3500 900 
Wire Wire Line
	3500 900  3500 800 
Wire Wire Line
	6550 3400 6550 3250
Wire Wire Line
	4750 3400 4750 3250
Wire Wire Line
	6750 2550 6550 2550
Wire Wire Line
	6750 2650 6550 2650
Wire Wire Line
	4750 2750 4550 2750
Wire Wire Line
	6750 2750 6550 2750
Wire Wire Line
	6750 2850 6550 2850
Wire Wire Line
	6550 2950 6750 2950
Wire Wire Line
	6750 3050 6550 3050
Wire Wire Line
	6750 3150 6550 3150
Wire Wire Line
	4550 2950 4750 2950
Wire Wire Line
	4750 3050 4550 3050
Wire Wire Line
	4550 3150 4750 3150
Wire Wire Line
	1600 4900 1700 4900
Wire Wire Line
	1300 4900 1200 4900
Wire Wire Line
	2600 900  2600 800 
Wire Wire Line
	900  4750 900  4900
Wire Wire Line
	2300 4900 2100 4900
Wire Wire Line
	1900 5500 1650 5500
Wire Wire Line
	3400 4900 3500 4900
Wire Wire Line
	3100 4900 3000 4900
Wire Wire Line
	2700 4750 2700 4900
Wire Wire Line
	4100 4900 3900 4900
Wire Wire Line
	3700 5500 3450 5500
Wire Wire Line
	1600 6300 1700 6300
Wire Wire Line
	1300 6300 1200 6300
Wire Wire Line
	900  6150 900  6300
Wire Wire Line
	2300 6300 2100 6300
Wire Wire Line
	1900 6900 1650 6900
Wire Wire Line
	3400 6300 3500 6300
Wire Wire Line
	3100 6300 3000 6300
Wire Wire Line
	2700 6150 2700 6300
Wire Wire Line
	4100 6300 3900 6300
Wire Wire Line
	3700 6900 3450 6900
Wire Wire Line
	9300 1250 9300 1050
Wire Wire Line
	9400 1050 9400 1250
Text GLabel 4300 2850 0    60   Output ~ 0
WakeUp
Wire Wire Line
	4750 2850 4300 2850
Text GLabel 4500 2500 0    60   Input ~ 0
WakeUp
Wire Wire Line
	4500 2500 4750 2500
Wire Wire Line
	4750 2500 4750 2550
$Comp
L HT7333-3.3 U2
U 1 1 5B42B095
P 5700 1000
F 0 "U2" H 5550 1125 50  0000 C CNN
F 1 "HT7333-3.3" H 5700 1125 50  0000 L CNN
F 2 "TO_SOT_Packages_THT:TO-92_Rugged" H 5700 1000 50  0001 C CNN
F 3 "" H 5700 1000 50  0001 C CNN
	1    5700 1000
	1    0    0    -1  
$EndComp
$Comp
L +5V #PWR022
U 1 1 5B42B1B9
P 5100 1000
F 0 "#PWR022" H 5100 850 50  0001 C CNN
F 1 "+5V" H 5100 1140 50  0000 C CNN
F 2 "" H 5100 1000 50  0001 C CNN
F 3 "" H 5100 1000 50  0001 C CNN
	1    5100 1000
	1    0    0    -1  
$EndComp
$Comp
L C C3
U 1 1 5B42B1F6
P 5300 1150
F 0 "C3" H 5325 1250 50  0000 L CNN
F 1 "C" H 5325 1050 50  0000 L CNN
F 2 "Capacitors_THT:CP_Radial_D5.0mm_P2.50mm" H 5338 1000 50  0001 C CNN
F 3 "" H 5300 1150 50  0001 C CNN
	1    5300 1150
	1    0    0    -1  
$EndComp
$Comp
L C C4
U 1 1 5B42B2C1
P 6100 1150
F 0 "C4" H 6125 1250 50  0000 L CNN
F 1 "C" H 6125 1050 50  0000 L CNN
F 2 "Capacitors_THT:CP_Radial_D5.0mm_P2.50mm" H 6138 1000 50  0001 C CNN
F 3 "" H 6100 1150 50  0001 C CNN
	1    6100 1150
	1    0    0    -1  
$EndComp
Wire Wire Line
	6000 1000 6350 1000
Wire Wire Line
	5100 1000 5400 1000
Connection ~ 5300 1000
$Comp
L GND #PWR023
U 1 1 5B42B56D
P 5700 1400
F 0 "#PWR023" H 5700 1150 50  0001 C CNN
F 1 "GND" H 5700 1250 50  0000 C CNN
F 2 "" H 5700 1400 50  0001 C CNN
F 3 "" H 5700 1400 50  0001 C CNN
	1    5700 1400
	1    0    0    -1  
$EndComp
Wire Wire Line
	5300 1300 6100 1300
Connection ~ 5700 1300
Wire Wire Line
	5700 1300 5700 1400
$Comp
L +3.3V #PWR024
U 1 1 5B42B717
P 6350 1000
F 0 "#PWR024" H 6350 850 50  0001 C CNN
F 1 "+3.3V" H 6350 1140 50  0000 C CNN
F 2 "" H 6350 1000 50  0001 C CNN
F 3 "" H 6350 1000 50  0001 C CNN
	1    6350 1000
	1    0    0    -1  
$EndComp
Connection ~ 6100 1000
Wire Wire Line
	10300 1200 10300 1050
$EndSCHEMATC
